{
  "project_info": {
    "project_number": "598032976358",
    "firebase_url": "https://flutter-chat-f8fc3-default-rtdb.asia-southeast1.firebasedatabase.app",
    "project_id": "flutter-chat-f8fc3",
    "storage_bucket": "flutter-chat-f8fc3.appspot.com"
  },
  "client": [
    {
      "client_info": {
        "mobilesdk_app_id": "1:598032976358:android:9dfa50488ef05dbaea6e27",
        "android_client_info": {
          "package_name": "com.edu.sgstar.sgstaredu"
        }
      },
      "oauth_client": [
        {
          "client_id": "598032976358-574fh7p1u2ppvmngs4r5cdeksbee3l8a.apps.googleusercontent.com",
          "client_type": 1,
          "android_info": {
            "package_name": "com.edu.sgstar.sgstaredu",
            "certificate_hash": "87a7e1228595f1b9a6b21b45ef1224b3146b1d9a"
          }
        },
        {
          "client_id": "598032976358-8bl9hc53p32dr616c0gvn9eg0vviiogt.apps.googleusercontent.com",
          "client_type": 3
        }
      ],
      "api_key": [
        {
          "current_key": "AIzaSyCUjCJkAE_KFBXdVKTospWq2LH7y25y_EE"
        }
      ],
      "services": {
        "appinvite_service": {
          "other_platform_oauth_client": [
            {
              "client_id": "598032976358-8bl9hc53p32dr616c0gvn9eg0vviiogt.apps.googleusercontent.com",
              "client_type": 3
            }
          ]
        }
      }
    }
  ],
  "configuration_version": "1"
}